<?xml version="1.0" encoding="UTF-8" standalone="no"?>
<!-- Created with Inkscape (http://www.inkscape.org/) -->

<svg
   xmlns:dc="http://purl.org/dc/elements/1.1/"
   xmlns:cc="http://creativecommons.org/ns#"
   xmlns:rdf="http://www.w3.org/1999/02/22-rdf-syntax-ns#"
   xmlns:svg="http://www.w3.org/2000/svg"
   xmlns="http://www.w3.org/2000/svg"
   xmlns:sodipodi="http://sodipodi.sourceforge.net/DTD/sodipodi-0.dtd"
   xmlns:inkscape="http://www.inkscape.org/namespaces/inkscape"
   width="40"
   height="48"
   id="svg2"
   version="1.1"
   inkscape:version="0.48.1 r9760"
   sodipodi:docname="icon.svg"
   inkscape:export-filename="/home/killasmurf86/src/extensions/firefox/Linx/chrome/Linx-button.png"
   inkscape:export-xdpi="90"
   inkscape:export-ydpi="90">
  <defs
     id="defs4" />
  <sodipodi:namedview
     id="base"
     pagecolor="#ffffff"
     bordercolor="#666666"
     borderopacity="1.0"
     inkscape:pageopacity="0.0"
     inkscape:pageshadow="2"
     inkscape:zoom="7.9195959"
     inkscape:cx="-27.380941"
     inkscape:cy="24.257195"
     inkscape:document-units="px"
     inkscape:current-layer="layer1"
     showgrid="false"
     fit-margin-top="0"
     fit-margin-left="0"
     fit-margin-right="0"
     fit-margin-bottom="0"
     showborder="false"
     inkscape:showpageshadow="false" />
  <metadata
     id="metadata7">
    <rdf:RDF>
      <cc:Work
         rdf:about="">
        <dc:format>image/svg+xml</dc:format>
        <dc:type
           rdf:resource="http://purl.org/dc/dcmitype/StillImage" />
        <dc:title></dc:title>
      </cc:Work>
    </rdf:RDF>
  </metadata>
  <g
     inkscape:label="Layer 1"
     inkscape:groupmode="layer"
     id="layer1"
     transform="translate(-77.14286,-182.07646)">
    <rect
       style="fill:#000080;fill-opacity:1;stroke:none"
       id="rect2985"
       width="24"
       height="24"
       x="77.14286"
       y="206.07646"
       ry="5.2086" />
    <flowRoot
       xml:space="preserve"
       id="flowRoot2987"
       style="font-size:14px;font-style:normal;font-weight:normal;text-align:center;line-height:125%;letter-spacing:0px;word-spacing:0px;text-anchor:middle;fill:#ffffff;fill-opacity:1;stroke:none;font-family:Bitstream Vera Sans;-inkscape-font-specification:Sans"
       transform="matrix(0.75,0,0,0.75,14.361221,55.246272)"><flowRegion
         id="flowRegion2989"><rect
           id="rect2991"
           width="38.63834"
           height="18.182751"
           x="80.307129"
           y="206.99077"
           style="font-size:14px;fill:#ffffff" /></flowRegion><flowPara
         id="flowPara2993">Linx</flowPara></flowRoot>    <rect
       style="fill:#000080;fill-opacity:1;stroke:none"
       id="rect2985-9"
       width="16"
       height="16"
       x="101.14286"
       y="206.07646"
       ry="3.4724" />
    <flowRoot
       xml:space="preserve"
       id="flowRoot2987-7"
       style="font-size:14px;font-style:normal;font-weight:normal;text-align:center;line-height:125%;letter-spacing:0px;word-spacing:0px;text-anchor:middle;fill:#ffffff;fill-opacity:1;stroke:none;font-family:Bitstream Vera Sans;-inkscape-font-specification:Sans"
       transform="matrix(0.5,0,0,0.5,59.288435,105.52307)"><flowRegion
         id="flowRegion2989-0"><rect
           id="rect2991-3"
           width="38.63834"
           height="18.182751"
           x="80.307129"
           y="206.99077"
           style="font-size:14px;fill:#ffffff" /></flowRegion><flowPara
         id="flowPara2993-9">Linx</flowPara></flowRoot>    <rect
       style="fill:#0000a5;fill-opacity:1;stroke:none"
       id="rect2985-2"
       width="24"
       height="24"
       x="77.14286"
       y="182.07646"
       ry="5.2086" />
    <flowRoot
       xml:space="preserve"
       id="flowRoot2987-70"
       style="font-size:14px;font-style:normal;font-weight:normal;text-align:center;line-height:125%;letter-spacing:0px;word-spacing:0px;text-anchor:middle;fill:#ffffff;fill-opacity:1;stroke:none;font-family:Bitstream Vera Sans;-inkscape-font-specification:Sans"
       transform="matrix(0.75,0,0,0.75,14.36122,29.24628)"><flowRegion
         id="flowRegion2989-3"><rect
           id="rect2991-9"
           width="38.63834"
           height="18.182751"
           x="80.307129"
           y="206.99077"
           style="font-size:14px;fill:#ffffff" /></flowRegion><flowPara
         id="flowPara2993-99">Linx</flowPara></flowRoot>    <flowRoot
       xml:space="preserve"
       id="flowRoot3118"
       style="font-size:8px;font-style:normal;font-weight:bold;text-align:center;line-height:125%;letter-spacing:0px;word-spacing:0px;text-anchor:middle;fill:#ffffff;fill-opacity:1;stroke:none;font-family:Bitstream Vera Sans;-inkscape-font-specification:Bitstream Vera Sans Bold"
       transform="translate(139.26724,199.48573)"><flowRegion
         id="flowRegion3120"><rect
           id="rect3122"
           width="37.880722"
           height="39.39595"
           x="-68.437836"
           y="-6.1332588"
           style="font-size:8px;font-weight:bold;fill:#ffffff;-inkscape-font-specification:Bitstream Vera Sans Bold" /></flowRegion><flowPara
         id="flowPara3124">+</flowPara></flowRoot>    <rect
       style="fill:#0000a5;fill-opacity:1;stroke:none"
       id="rect2985-2-6"
       width="16"
       height="16"
       x="101.14286"
       y="182.07646"
       ry="3.4724" />
    <flowRoot
       xml:space="preserve"
       id="flowRoot2987-70-0"
       style="font-size:14px;font-style:normal;font-weight:normal;text-align:center;line-height:125%;letter-spacing:0px;word-spacing:0px;text-anchor:middle;fill:#ffffff;fill-opacity:1;stroke:none;font-family:Bitstream Vera Sans;-inkscape-font-specification:Sans"
       transform="matrix(0.5,0,0,0.5,59.28843,80.189756)"><flowRegion
         id="flowRegion2989-3-3"><rect
           id="rect2991-9-2"
           width="38.63834"
           height="18.182751"
           x="80.307129"
           y="206.99077"
           style="font-size:14px;fill:#ffffff" /></flowRegion><flowPara
         id="flowPara2993-99-6">Linx</flowPara></flowRoot>    <flowRoot
       xml:space="preserve"
       id="flowRoot3118-9"
       style="font-size:8px;font-style:normal;font-weight:bold;text-align:center;line-height:125%;letter-spacing:0px;word-spacing:0px;text-anchor:middle;fill:#ffffff;fill-opacity:1;stroke:none;font-family:Bitstream Vera Sans;-inkscape-font-specification:Bitstream Vera Sans Bold"
       transform="matrix(0.66666667,0,0,0.66666667,142.55911,193.68271)"><flowRegion
         id="flowRegion3120-4"><rect
           id="rect3122-1"
           width="37.880722"
           height="39.39595"
           x="-68.437836"
           y="-6.1332588"
           style="font-size:8px;font-weight:bold;fill:#ffffff;-inkscape-font-specification:Bitstream Vera Sans Bold" /></flowRegion><flowPara
         id="flowPara3124-3">+</flowPara></flowRoot>  </g>
</svg>
