<?xml version="1.0" encoding="UTF-8" standalone="no"?>
<!-- Created with Inkscape (http://www.inkscape.org/) -->

<svg
   xmlns:dc="http://purl.org/dc/elements/1.1/"
   xmlns:cc="http://creativecommons.org/ns#"
   xmlns:rdf="http://www.w3.org/1999/02/22-rdf-syntax-ns#"
   xmlns:svg="http://www.w3.org/2000/svg"
   xmlns="http://www.w3.org/2000/svg"
   xmlns:xlink="http://www.w3.org/1999/xlink"
   xmlns:sodipodi="http://sodipodi.sourceforge.net/DTD/sodipodi-0.dtd"
   xmlns:inkscape="http://www.inkscape.org/namespaces/inkscape"
   width="1280"
   height="96"
   id="svg2"
   version="1.1"
   inkscape:version="0.48.0 r9654"
   sodipodi:docname="links.svg"
   inkscape:export-filename="/home/killasmurf86/src/perl/links/gfx/links.png"
   inkscape:export-xdpi="90"
   inkscape:export-ydpi="90">
  <defs
     id="defs4">
    <linearGradient
       id="linearGradient3862">
      <stop
         style="stop-color:#ffffff;stop-opacity:0;"
         offset="0"
         id="stop3864" />
      <stop
         style="stop-color:#ffffff;stop-opacity:0;"
         offset="0.57873362"
         id="stop3882" />
      <stop
         id="stop3874"
         offset="0.83510548"
         style="stop-color:#ffffff;stop-opacity:0.27764127;" />
      <stop
         style="stop-color:#ffffff;stop-opacity:0.15724815;"
         offset="0.84846449"
         id="stop3880" />
      <stop
         id="stop3872"
         offset="0.86529189"
         style="stop-color:#ffffff;stop-opacity:0.28992629;" />
      <stop
         id="stop3870"
         offset="0.88020909"
         style="stop-color:#ffffff;stop-opacity:0.11793612;" />
      <stop
         style="stop-color:#ffffff;stop-opacity:0.33906633;"
         offset="0.89946622"
         id="stop3884" />
      <stop
         id="stop3886"
         offset="0.91480601"
         style="stop-color:#ffffff;stop-opacity:0.08845209;" />
      <stop
         style="stop-color:#ffffff;stop-opacity:0.29238328;"
         offset="0.94928098"
         id="stop3878" />
      <stop
         style="stop-color:#ffffff;stop-opacity:0.07371008;"
         offset="1"
         id="stop3866" />
    </linearGradient>
    <linearGradient
       id="linearGradient3848">
      <stop
         style="stop-color:#ffffff;stop-opacity:1;"
         offset="0"
         id="stop3850" />
      <stop
         id="stop3858"
         offset="0.91759694"
         style="stop-color:#0a0a0a;stop-opacity:0.95686275;" />
      <stop
         id="stop3856"
         offset="0.91759694"
         style="stop-color:#bbbbc7;stop-opacity:0.2627451;" />
      <stop
         style="stop-color:#ffffff;stop-opacity:0;"
         offset="1"
         id="stop3852" />
    </linearGradient>
    <linearGradient
       id="linearGradient2987">
      <stop
         style="stop-color:#030543;stop-opacity:1;"
         offset="0"
         id="stop2989" />
      <stop
         style="stop-color:#00075e;stop-opacity:1;"
         offset="1"
         id="stop2991" />
    </linearGradient>
    <linearGradient
       inkscape:collect="always"
       xlink:href="#linearGradient2987"
       id="linearGradient2993"
       x1="1015.7143"
       y1="-261.14285"
       x2="127.14283"
       y2="-373.99997"
       gradientUnits="userSpaceOnUse"
       gradientTransform="matrix(1.3375796,0,0,0.78851554,-42.88164,894.00179)" />
    <filter
       inkscape:collect="always"
       id="filter3834"
       x="-0.13797424"
       width="1.2759485"
       y="-0.40523281"
       height="1.8104656">
      <feGaussianBlur
         inkscape:collect="always"
         stdDeviation="9.2364589"
         id="feGaussianBlur3836" />
    </filter>
    <linearGradient
       inkscape:collect="always"
       xlink:href="#linearGradient3862"
       id="linearGradient3868"
       x1="1008.9037"
       y1="-981.86371"
       x2="181.09311"
       y2="-228.31184"
       gradientUnits="userSpaceOnUse"
       gradientTransform="matrix(1.0950107,0,0,1,258.35019,972.59638)" />
  </defs>
  <sodipodi:namedview
     id="base"
     pagecolor="#ffffff"
     bordercolor="#666666"
     borderopacity="1.0"
     inkscape:pageopacity="0.0"
     inkscape:pageshadow="2"
     inkscape:zoom="0.61583581"
     inkscape:cx="1005.0838"
     inkscape:cy="494.13791"
     inkscape:document-units="px"
     inkscape:current-layer="layer1"
     showgrid="false"
     inkscape:showpageshadow="false"
     inkscape:window-width="1276"
     inkscape:window-height="1004"
     inkscape:window-x="0"
     inkscape:window-y="0"
     inkscape:window-maximized="0" />
  <metadata
     id="metadata7">
    <rdf:RDF>
      <cc:Work
         rdf:about="">
        <dc:format>image/svg+xml</dc:format>
        <dc:type
           rdf:resource="http://purl.org/dc/dcmitype/StillImage" />
        <dc:title></dc:title>
      </cc:Work>
    </rdf:RDF>
  </metadata>
  <g
     inkscape:label="Layer 1"
     inkscape:groupmode="layer"
     id="layer1"
     transform="translate(0,-956.36215)">
    <rect
       style="fill:url(#linearGradient2993);fill-opacity:1;stroke:none"
       id="rect2985"
       width="1200"
       height="94.621872"
       x="127.18207"
       y="596.84406"
       inkscape:export-filename="/home/killasmurf86/src/perl/links/gfx/links.png"
       inkscape:export-xdpi="90"
       inkscape:export-ydpi="90" />
    <rect
       style="opacity:0.71914894;fill:url(#linearGradient3868);fill-opacity:1;stroke:#000000;stroke-width:1.36035585;stroke-linecap:round;stroke-linejoin:miter;stroke-miterlimit:4;stroke-opacity:1;stroke-dasharray:none;stroke-dashoffset:0"
       id="rect3860"
       width="1404.7083"
       height="312.85721"
       x="33.124935"
       y="497.16782" />
    <flowRoot
       xml:space="preserve"
       id="flowRoot2995"
       style="font-size:72px;font-style:normal;font-weight:normal;line-height:125%;letter-spacing:0px;word-spacing:0px;opacity:0.8;fill:#ffffff;fill-opacity:1;stroke:none;font-family:Bitstream Vera Sans"
       transform="translate(-7.1428573,809.79072)"><flowRegion
         id="flowRegion2997"><rect
           id="rect2999"
           width="311.42856"
           height="88.571434"
           x="181.42857"
           y="-212.57143"
           style="font-size:72px;fill:#ffffff" /></flowRegion><flowPara
         id="flowPara3001"
         style="font-size:72px;font-weight:bold;fill:#ffffff;-inkscape-font-specification:Bitstream Vera Sans Bold">Linx</flowPara></flowRoot>    <flowRoot
       xml:space="preserve"
       id="flowRoot2995-4"
       style="font-size:72px;font-style:normal;font-weight:normal;line-height:125%;letter-spacing:0px;word-spacing:0px;fill:#ffffff;fill-opacity:1;stroke:none;filter:url(#filter3834);font-family:Bitstream Vera Sans"
       transform="translate(-7.1289064,809.74241)"><flowRegion
         id="flowRegion2997-8"><rect
           id="rect2999-0"
           width="311.42856"
           height="88.571434"
           x="181.42857"
           y="-212.57143"
           style="font-size:72px;fill:#ffffff" /></flowRegion><flowPara
         id="flowPara3001-4"
         style="font-size:72px;font-weight:bold;fill:#ffffff;-inkscape-font-specification:Bitstream Vera Sans Bold">Linx</flowPara></flowRoot>  </g>
</svg>
